…
How many nicknames each character have?

```r
got <- set_names(got_chars, my_characters)
char_table <- got %>% 
  map_dbl(~length(.x[["aliases"]])) %>% 
  enframe()
char_table
```

```
## # A tibble: 30 x 2
##    name               value
##    <chr>              <dbl>
##  1 Theon Greyjoy          4
##  2 Tyrion Lannister      11
##  3 Victarion Greyjoy      1
##  4 Will                   1
##  5 Areo Hotah             1
##  6 Chett                  1
##  7 Cressen                1
##  8 Arianne Martell        1
##  9 Daenerys Targaryen    11
## 10 Davos Seaworth         5
## # ... with 20 more rows
```
…
